dotahelper/DotaHelperSpeechlet$DotaHelperResponse.class
dotahelper/DotaHelperSpeechletRequestStreamHandler.class
dotahelper/DotaHelperSpeechlet$RoshanResponse.class
dotahelper/DotaHelperSpeechlet.class
dotahelper/DotaHelperSpeechlet$IDotaHelperResponse.class
dotahelper/DotaHelperSpeechlet$ItemRecommendationResponse.class
